EDA
…
The data set my_data_state is processed to calculate the average
population for each state. This is done by using the summarise_at()
function to the variable population. The reasoning behind calculating
the average population is to compare the number of certain
establishments. A place with a greater population will most likely have
a greater number of establishments. However, it is important to have
more of larger ratio of population to number of food establishments or a
specific food establishment.

#calculate mean population by state
my_data_bystate %>% summarise_at(vars(population), list(name = mean))

## # A tibble: 51 x 2
##    statecol  name
##  * <chr>    <dbl>
##  1 AK       4138.
##  2 AL       3999.
##  3 AR       4187.
##  4 AZ       4054.
##  5 CA       4566.
##  6 CO       3942.
##  7 CT       4274.
##  8 DC       3365.
##  9 DE       4097.
## 10 FL       4374.
## #  with 41 more rows
…
states_map variable is created for storing the data for US states
using the maps package. st_as_sf function converts the data to allow
for compatibility of spatial functions in R. Then, the my_data_bystate
dataset is processed to calculate the total establishment count for each
row. This represents the aggregated data across different types of
establishments. Then, the density by state is calculated by having the
dataset grouped by statecol. .groups = drop argument is used to
return the standard data frame but also not group structure.

The purpose of this code is to prepare the data for mapping and
geographic analysis.

print(my_data_bystate)

## # A tibble: 145,061 x 51
## # Groups:   statecol [51]
##    tract_fips10 year  population aland10 count_7225 count_sales_7225
##    <chr>        <fct>      <dbl>   <dbl>      <int>            <int>
##  1 01001020100  2007       1832.    3.79          0                0
##  2 01001020100  2009       1819.    3.79          0                0
##  3 01001020200  2007       2133.    1.29          8                8
##  4 01001020200  2009       2190.    1.29          7                7
##  5 01001020300  2007       3210.    2.07          5                5
##  6 01001020300  2009       3173.    2.07          2                2
##  7 01001020400  2007       4403.    2.46          8                8
##  8 01001020400  2009       4359.    2.46         10               10
##  9 01001020500  2007       9165.    4.40         25               24
## 10 01001020500  2009      10054.    4.40         23               22
## #  with 145,051 more rows, and 45 more variables: count_emp_7225 <int>,
## #   popden_7225 <dbl>, popden_sales_7225 <dbl>, popden_emp_7225 <dbl>,
## #   aden_7225 <dbl>, aden_sales_7225 <dbl>, aden_emp_7225 <dbl>,
## #   count_722511 <int>, count_sales_722511 <int>, count_emp_722511 <int>,
## #   popden_722511 <dbl>, popden_sales_722511 <dbl>, popden_emp_722511 <dbl>,
## #   aden_722511 <dbl>, aden_sales_722511 <dbl>, aden_emp_722511 <dbl>,
## #   count_722513 <int>, count_sales_722513 <int>, count_emp_722513 <int>,
## #   popden_722513 <dbl>, popden_sales_722513 <dbl>, popden_emp_722513 <dbl>,
## #   aden_722513 <dbl>, aden_sales_722513 <dbl>, aden_emp_722513 <dbl>,
…
